301-3 Final Project Executive Summary
…
tune_results <- tibble(
  model_type = c("rf", "knn", "btree", "svmrb"), 
  tune_info = list(rf_tune, knn_tune, btree_tune, svmrb_tuned), 
  assessment_info = map(tune_info, collect_metrics), 
  best_model = map(tune_info, ~ select_best(.x, metric = "rmse"))
)

tune_results %>% 
  select(model_type, assessment_info) %>% 
  unnest(assessment_info) %>% 
  filter(.metric == "rmse") %>% 
  arrange(mean)

## # A tibble: 60 x 13
##    model_type  mtry min_n .metric .estimator  mean     n std_err .config        
##    <chr>      <int> <int> <chr>   <chr>      <dbl> <int>   <dbl> <chr>          
##  1 rf             9    40 rmse    standard   0.210    15 0.00103 Preprocessor1_
##  2 rf             5     2 rmse    standard   0.210    15 0.00105 Preprocessor1_
##  3 rf             9    30 rmse    standard   0.210    15 0.00103 Preprocessor1_
##  4 rf             5    11 rmse    standard   0.210    15 0.00105 Preprocessor1_
##  5 rf             9    21 rmse    standard   0.210    15 0.00102 Preprocessor1_
##  6 rf             5    21 rmse    standard   0.211    15 0.00105 Preprocessor1_
##  7 rf            13    40 rmse    standard   0.211    15 0.00102 Preprocessor1_
##  8 rf             5    30 rmse    standard   0.211    15 0.00104 Preprocessor1_
##  9 rf            13    30 rmse    standard   0.211    15 0.00103 Preprocessor1_
## 10 rf             5    40 rmse    standard   0.211    15 0.00104 Preprocessor1_
## #  with 50 more rows, and 4 more variables: neighbors <int>,
## #   sample_size <dbl>, cost <dbl>, rbf_sigma <dbl>
…
